{
    "self": "http://www.example.com/jira/rest/api/2/group/member?groupname=jira-administrators&includeInactiveUsers=false&startAt=2&maxResults=2",
    "nextPage": "http://www.example.com/jira/rest/api/2/group/member?groupname=jira-administrators&includeInactiveUsers=false&startAt=4&maxResults=2",
    "maxResults": 2,
    "startAt": 3,
    "total": 5,
    "isLast": false,
    "values": [{
            "self": "http://example/jira/rest/api/2/user?username=fred",
            "name": "Fred",
            "key": "fred",
            "emailAddress": "fred@atlassian.com",
            "avatarUrls": {},
            "displayName": "Fred",
            "active": true,
            "timeZone": "Australia/Sydney"
        },
        {
            "self": "http://example/jira/rest/api/2/user?username=barney",
            "name": "Barney",
            "key": "barney",
            "emailAddress": "barney@atlassian.com",
            "avatarUrls": {},
            "displayName": "Barney",
            "active": false,
            "timeZone": "Australia/Sydney"
        }
    ]
}